[api-updater (non-obsolete-error-filter)] 8/12/2021 9:03:03 AM : Starting /Applications/Unity/Hub/Editor/2020.3.2f1/Unity.app/Contents/Tools/ScriptUpdater/APIUpdater.NonObsoleteApiUpdaterDetector.exe
[api-updater (non-obsolete-error-filter)] 
----------------------------------
jit/startup time      : 140.18ms
moved types parse time: 141ms
candidates parse time : 6ms
C# parse time         : 803ms
candidates check time : 316ms
console write time    : 1ms

[api-updater (non-obsolete-error-filter)] 8/14/2021 7:42:49 PM : Starting /Applications/2020.3.4f1/Unity/Unity.app/Contents/Tools/ScriptUpdater/APIUpdater.NonObsoleteApiUpdaterDetector.exe
[api-updater (non-obsolete-error-filter)] 
----------------------------------
jit/startup time      : 871.699ms
moved types parse time: 117ms
candidates parse time : 3ms
C# parse time         : 603ms
candidates check time : 177ms
console write time    : 2ms

[api-updater (non-obsolete-error-filter)] 8/14/2021 7:43:00 PM : Starting /Applications/2020.3.4f1/Unity/Unity.app/Contents/Tools/ScriptUpdater/APIUpdater.NonObsoleteApiUpdaterDetector.exe
[api-updater (non-obsolete-error-filter)] 
----------------------------------
jit/startup time      : 70.254ms
moved types parse time: 83ms
candidates parse time : 2ms
C# parse time         : 525ms
candidates check time : 203ms
console write time    : 1ms

[api-updater (non-obsolete-error-filter)] 2021/8/25 14:01:30 : Starting C:/Program Files/Unity/Hub/Editor/2020.3.15f2/Editor/Data/Tools/ScriptUpdater/APIUpdater.NonObsoleteApiUpdaterDetector.exe
[api-updater (non-obsolete-error-filter)] 
----------------------------------
jit/startup time      : 85.7826ms
moved types parse time: 42ms
candidates parse time : 10ms
C# parse time         : 161ms
candidates check time : 22ms
console write time    : 0ms

[api-updater (non-obsolete-error-filter)] 8/26/2021 9:46:10 AM : Starting /Applications/Unity/Hub/Editor/2020.3.4f1/Unity.app/Contents/Tools/ScriptUpdater/APIUpdater.NonObsoleteApiUpdaterDetector.exe
[api-updater (non-obsolete-error-filter)] 
----------------------------------
jit/startup time      : 144.289ms
moved types parse time: 143ms
candidates parse time : 5ms
C# parse time         : 694ms
candidates check time : 317ms
console write time    : 0ms

[api-updater (non-obsolete-error-filter)] 8/26/2021 11:16:32 AM : Starting /Applications/Unity/Hub/Editor/2020.3.4f1/Unity.app/Contents/Tools/ScriptUpdater/APIUpdater.NonObsoleteApiUpdaterDetector.exe
[api-updater (non-obsolete-error-filter)] 
----------------------------------
jit/startup time      : 151.163ms
moved types parse time: 139ms
candidates parse time : 7ms
C# parse time         : 741ms
candidates check time : 318ms
console write time    : 4ms

[api-updater (non-obsolete-error-filter)] 8/31/2021 11:27:48 AM : Starting /Applications/Unity/Hub/Editor/2020.3.4f1/Unity.app/Contents/Tools/ScriptUpdater/APIUpdater.NonObsoleteApiUpdaterDetector.exe
[api-updater (non-obsolete-error-filter)] 
----------------------------------
jit/startup time      : 136.254ms
moved types parse time: 160ms
candidates parse time : 8ms
C# parse time         : 787ms
candidates check time : 287ms
console write time    : 1ms

[api-updater (non-obsolete-error-filter)] 8/31/2021 11:33:22 AM : Starting /Applications/Unity/Hub/Editor/2020.3.4f1/Unity.app/Contents/Tools/ScriptUpdater/APIUpdater.NonObsoleteApiUpdaterDetector.exe
[api-updater (non-obsolete-error-filter)] 
----------------------------------
jit/startup time      : 131.465ms
moved types parse time: 145ms
candidates parse time : 5ms
C# parse time         : 769ms
candidates check time : 392ms
console write time    : 2ms

