%YAML 1.1
%TAG !u! tag:unity3d.com,2011:
--- !u!1045 &1
EditorBuildSettings:
  m_ObjectHideFlags: 0
  serializedVersion: 2
  m_Scenes:
  - enabled: 1
    path: Assets/Creator Kit - RPG/Scenes/Menu.unity
    guid: f77cdae477be1604d8fcc345017290e9
  - enabled: 1
    path: Assets/Creator Kit - RPG/Scenes/First.unity
    guid: 94cc12f00d5da477294019c7bb39efa3
  - enabled: 0
    path: Assets/Creator Kit - RPG/Scenes/Success.unity
    guid: 54a42208e7b7469488da8c229326f376
  - enabled: 1
    path: Assets/Creator Kit - RPG/Scenes/Erfolg.unity
    guid: ed1d1353a660842b3bddba7881d3b92b
  - enabled: 1
    path: Assets/Creator Kit - RPG/Scenes/GameOver.unity
    guid: 702c862af15b74a3fb136b6ed3615e25
  m_configObjects: {}
